{
  "$schema": "http://json-schema.org/draft-07/schema#",
  "title": "PostgreSQL credential schema",
  "type": "object",
  "properties": {
    "adapter": {
      "enum": [
        "postgresql",
        "postgis"
      ]
    },
    "host": {
      "type": "string"
    },
    "port": {
      "type": "integer"
    },
    "username": {
      "type": "string"
    },
    "password": {
      "type": "string"
    },
    "database": {
      "type": "string"
    }
  },
  "required": [
    "adapter",
    "host",
    "port",
    "username",
    "password",
    "database"
  ]
}
